2.821250000000000000e+02
2.823750000000000000e+02
2.826250000000000000e+02
2.828750000000000000e+02
2.831250000000000000e+02
2.833750000000000000e+02
2.836250000000000000e+02
2.838750000000000000e+02
2.841250000000000000e+02
2.843750000000000000e+02
2.846250000000000000e+02
2.848750000000000000e+02
2.851250000000000000e+02
2.853750000000000000e+02
2.856250000000000000e+02
2.858750000000000000e+02
