-0.50 -2656337.833651
-0.45 -2656337.903931
-0.40 -2656337.952921
-0.35 -2656337.998923
-0.30 -2656338.027096
-0.25 -2656338.044072
-0.20 -2656338.059642
-0.15 -2656338.070900
-0.10 -2656338.081782
-0.05 -2656338.078437
0.00 -2656338.068856
0.05 -2656338.066500
0.10 -2656338.050748
0.15 -2656338.015302
0.20 -2656337.965617
0.25 -2656337.908743
0.30 -2656337.846468
0.35 -2656337.753601
0.40 -2656337.636814
0.45 -2656337.534597
0.50 -2656337.403593
0.55 -2656337.253863
0.60 -2656337.084362
0.65 -2656336.912554
0.70 -2656336.730725
0.75 -2656336.532407
0.80 -2656336.331058
0.85 -2656336.123489
0.90 -2656335.902117
0.95 -2656335.701317
1.00 -2656335.489969
1.05 -2656335.289485
1.10 -2656335.091342
1.15 -2656334.898093
1.20 -2656334.715020
1.25 -2656334.552991
1.30 -2656334.391772
1.35 -2656334.249734
1.40 -2656334.116670
1.45 -2656333.992563
1.50 -2656333.895596
